<?xml version="1.0" encoding="UTF-8" standalone="no"?>
<!-- Created with Inkscape (http://www.inkscape.org/) -->

<svg
   xmlns:dc="http://purl.org/dc/elements/1.1/"
   xmlns:cc="http://creativecommons.org/ns#"
   xmlns:rdf="http://www.w3.org/1999/02/22-rdf-syntax-ns#"
   xmlns:svg="http://www.w3.org/2000/svg"
   xmlns="http://www.w3.org/2000/svg"
   xmlns:sodipodi="http://sodipodi.sourceforge.net/DTD/sodipodi-0.dtd"
   xmlns:inkscape="http://www.inkscape.org/namespaces/inkscape"
   width="256"
   height="256"
   id="svg2985"
   version="1.1"
   inkscape:version="0.91 r"
   sodipodi:docname="memory_card.svg"
   inkscape:export-filename="/home/georg/gsm.png"
   inkscape:export-xdpi="8.4375"
   inkscape:export-ydpi="8.4375">
  <defs
     id="defs2987" />
  <sodipodi:namedview
     id="base"
     pagecolor="#232323"
     bordercolor="#666666"
     borderopacity="1.0"
     inkscape:pageopacity="0"
     inkscape:pageshadow="2"
     inkscape:zoom="1.2630524"
     inkscape:cx="-149.80456"
     inkscape:cy="158.23134"
     inkscape:current-layer="layer1"
     inkscape:document-units="px"
     showgrid="true"
     inkscape:window-width="1366"
     inkscape:window-height="716"
     inkscape:window-x="0"
     inkscape:window-y="25"
     inkscape:window-maximized="1" />
  <metadata
     id="metadata2990">
    <rdf:RDF>
      <cc:Work
         rdf:about="">
        <dc:format>image/svg+xml</dc:format>
        <dc:type
           rdf:resource="http://purl.org/dc/dcmitype/StillImage" />
        <dc:title />
      </cc:Work>
    </rdf:RDF>
  </metadata>
  <g
     id="layer1"
     inkscape:label="Layer 1"
     inkscape:groupmode="layer"
     transform="translate(0,-224)">
    <path
       style="fill:#666666;fill-opacity:1;stroke:none;stroke-width:2.00377131;stroke-miterlimit:4;stroke-dasharray:none"
       d="m 30.917117,224.00003 c -2.698667,0 -4.871116,1.7635 -4.871116,3.95399 l 0,5.65337 203.907999,0 0,-5.65337 c 0,-2.19049 -2.17245,-3.95399 -4.87111,-3.95399 z m 199.036883,23.44295 0,-3.68649 -203.907999,0 0,3.68649 0,10.14909 0,3.68874 203.907999,0 0,-3.68874 z m 0,27.67342 0,-3.68649 -203.907999,0 0,3.68649 0,10.15134 0,3.68649 203.907999,0 0,-3.68649 m -203.907999,13.83559 0,176.94265 c 1e-6,2.19049 2.172449,3.95399 4.871116,3.95399 l 194.165773,0 c 2.69866,0 4.87111,-1.7635 4.87111,-3.95399 l 0,-176.94265 z m 24.557885,48.43241 154.792234,0 c 4.12277,0 7.44041,3.31765 7.44041,7.44043 l 0,84.83653 c 0,4.12278 -3.31764,7.4427 -7.44041,7.44267 l -154.792235,0 c -4.122775,0 -7.440421,-3.31989 -7.440421,-7.44267 l 0,-84.83653 c 0,-4.12278 3.317646,-7.44043 7.440422,-7.44043 z m 54.335304,109.23034 46.12162,0 L 128,472.14144 Z"
       id="rect2993"
       inkscape:connector-curvature="0"
       sodipodi:nodetypes="ssccsssccccccccccccccccccssssccssssssssscccc" />
  </g>
</svg>
