<?xml version="1.0" encoding="UTF-8" standalone="no"?>
<!-- Created with Inkscape (http://www.inkscape.org/) -->

<svg
   xmlns:dc="http://purl.org/dc/elements/1.1/"
   xmlns:cc="http://creativecommons.org/ns#"
   xmlns:rdf="http://www.w3.org/1999/02/22-rdf-syntax-ns#"
   xmlns:svg="http://www.w3.org/2000/svg"
   xmlns="http://www.w3.org/2000/svg"
   xmlns:sodipodi="http://sodipodi.sourceforge.net/DTD/sodipodi-0.dtd"
   xmlns:inkscape="http://www.inkscape.org/namespaces/inkscape"
   width="210mm"
   height="297mm"
   viewBox="0 0 744.09448819 1052.3622047"
   id="svg2"
   version="1.1"
   inkscape:version="0.91 r"
   shape-rendering="crispEdges"
   sodipodi:docname="steam.svg"
   inkscape:export-filename="/home/georg/steam.png"
   inkscape:export-xdpi="61.083782"
   inkscape:export-ydpi="61.083782">
  <defs
     id="defs4">
    <filter
       inkscape:collect="always"
       style="color-interpolation-filters:sRGB"
       id="filter4219"
       x="-0.11954519"
       width="1.2390904"
       y="-0.12045828"
       height="1.2409166">
      <feGaussianBlur
         inkscape:collect="always"
         stdDeviation="13.283545"
         id="feGaussianBlur4221" />
    </filter>
    <filter
       inkscape:collect="always"
       style="color-interpolation-filters:sRGB"
       id="filter4251"
       x="-0.059772595"
       width="1.1195452"
       y="-0.060229142"
       height="1.1204583">
      <feGaussianBlur
         inkscape:collect="always"
         stdDeviation="6.6417724"
         id="feGaussianBlur4253" />
    </filter>
    <filter
       inkscape:collect="always"
       style="color-interpolation-filters:sRGB"
       id="filter4265"
       x="-0.035863557"
       width="1.0717271"
       y="-0.036137485"
       height="1.072275">
      <feGaussianBlur
         inkscape:collect="always"
         stdDeviation="3.9850634"
         id="feGaussianBlur4267" />
    </filter>
    <filter
       inkscape:collect="always"
       style="color-interpolation-filters:sRGB"
       id="filter4313"
       x="-0.12354157"
       width="1.2470831"
       y="-0.11665582"
       height="1.2333116">
      <feGaussianBlur
         inkscape:collect="always"
         stdDeviation="10.589307"
         id="feGaussianBlur4315" />
    </filter>
    <filter
       inkscape:collect="always"
       style="color-interpolation-filters:sRGB"
       id="filter4325"
       x="-0.061770787"
       width="1.1235416"
       y="-0.05832791"
       height="1.1166558">
      <feGaussianBlur
         inkscape:collect="always"
         stdDeviation="5.2946534"
         id="feGaussianBlur4327" />
    </filter>
    <filter
       inkscape:collect="always"
       style="color-interpolation-filters:sRGB"
       id="filter4333"
       x="-0.037062472"
       width="1.0741249"
       y="-0.034996746"
       height="1.0699935">
      <feGaussianBlur
         inkscape:collect="always"
         stdDeviation="3.176792"
         id="feGaussianBlur4335" />
    </filter>
  </defs>
  <sodipodi:namedview
     id="base"
     pagecolor="#575757"
     bordercolor="#666666"
     borderopacity="1.0"
     inkscape:pageopacity="0"
     inkscape:pageshadow="2"
     inkscape:zoom="0.7"
     inkscape:cx="-49.144059"
     inkscape:cy="591.27349"
     inkscape:document-units="px"
     inkscape:current-layer="layer1"
     showgrid="false"
     inkscape:window-width="1366"
     inkscape:window-height="716"
     inkscape:window-x="0"
     inkscape:window-y="25"
     inkscape:window-maximized="1" />
  <metadata
     id="metadata7">
    <rdf:RDF>
      <cc:Work
         rdf:about="">
        <dc:format>image/svg+xml</dc:format>
        <dc:type
           rdf:resource="http://purl.org/dc/dcmitype/StillImage" />
        <dc:title />
      </cc:Work>
    </rdf:RDF>
  </metadata>
  <g
     inkscape:label="Ebene 1"
     inkscape:groupmode="layer"
     id="layer1">
    <rect
       style="opacity:1;fill:#00ffff;fill-opacity:1;stroke:none;stroke-width:4;stroke-linecap:round;stroke-linejoin:round;stroke-miterlimit:4;stroke-dasharray:none"
       id="rect4159"
       width="256"
       height="256"
       x="-401.57141"
       y="576.50507"
       rx="0"
       ry="0"
       inkscape:export-filename="/home/georg/uplay.png"
       inkscape:export-xdpi="45"
       inkscape:export-ydpi="45" />
    <rect
       style="opacity:0.6;fill:none;fill-opacity:1;stroke:#00ffff;stroke-width:0.47057432;stroke-linejoin:round;stroke-miterlimit:4;stroke-dasharray:none"
       id="rect4136"
       width="376.71631"
       height="376.71631"
       x="154.58864"
       y="319.02673" />
    <g
       id="g4288"
       transform="matrix(0.77471862,0,0,0.77471862,-535.73726,311.03274)"
       inkscape:export-filename="/home/georg/steam.png"
       inkscape:export-xdpi="34.802872"
       inkscape:export-ydpi="34.802872">
      <path
         style="fill:#800080;fill-rule:evenodd;stroke:none;stroke-width:1px;stroke-linecap:butt;stroke-linejoin:miter;stroke-opacity:1;filter:url(#filter4219)"
         d="m 266.67969,375.56055 a 61.619305,61.619305 0 0 0 -61.61914,61.61914 61.619305,61.619305 0 0 0 51.82031,60.80469 l 34.07422,66.2539 a 39.39595,39.39595 0 0 0 -4.07227,17.39258 39.39595,39.39595 0 0 0 39.39649,39.39648 39.39595,39.39595 0 0 0 34.39258,-20.27734 l 32.82421,6.31836 a 39.39595,39.39595 0 0 0 38.84961,33.15234 39.39595,39.39595 0 0 0 39.39649,-39.39648 39.39595,39.39595 0 0 0 -39.39649,-39.39649 39.39595,39.39595 0 0 0 -35.21093,21.75 l -31.75196,-6.10937 a 39.39595,39.39595 0 0 0 -29.3457,-33.57422 L 315.7168,474.40625 a 61.619305,61.619305 0 0 0 12.58203,-37.22656 61.619305,61.619305 0 0 0 -61.61914,-61.61914 z m 0,20.2539 c 22.7863,0 41.36523,18.57893 41.36523,41.36524 0,22.7863 -18.57893,41.36523 -41.36523,41.36523 -22.78631,0 -41.36524,-18.57893 -41.36524,-41.36523 0,-22.78631 18.57893,-41.36524 41.36524,-41.36524 z m 0,10 c -17.38191,0 -31.36524,13.98333 -31.36524,31.36524 0,17.3819 13.98333,31.36523 31.36524,31.36523 17.3819,0 31.36523,-13.98333 31.36523,-31.36523 0,-17.38191 -13.98333,-31.36524 -31.36523,-31.36524 z m 59.59961,149.36914 c 12.0753,0 22.29461,8.16458 25.4414,19.25391 l -7.33398,-1.41211 c -3.21053,-6.77518 -10.08267,-11.44727 -18.10742,-11.44727 -11.11302,10e-6 -20.05274,8.93972 -20.05274,20.05274 0,11.11302 8.93972,20.05273 20.05274,20.05273 5.09631,0 9.72232,-1.8944 13.25195,-5.00195 l 7.4043,1.42578 c -4.85291,6.06835 -12.31119,9.9707 -20.65625,9.9707 -14.5683,10e-6 -26.44727,-11.87897 -26.44727,-26.44726 0,-14.56829 11.87897,-26.44727 26.44727,-26.44727 z m 106.0664,19.19336 c 14.5683,0 26.44727,11.87898 26.44727,26.44727 0,14.56829 -11.87897,26.44726 -26.44727,26.44726 -11.43564,0 -21.21009,-7.3214 -24.88672,-17.51562 l 7.75977,1.49414 c 3.51213,5.77477 9.84378,9.62695 17.12695,9.62695 11.11302,0 20.05274,-8.93971 20.05274,-20.05273 0,-11.11302 -8.93972,-20.05274 -20.05274,-20.05274 -5.80254,0 -10.99751,2.45203 -14.65234,6.36329 l -7.06836,-1.35938 c 4.78361,-6.87795 12.73821,-11.39844 21.7207,-11.39844 z"
         id="path4173"
         inkscape:connector-curvature="0" />
      <path
         id="path4223"
         d="m 266.67969,375.56055 a 61.619305,61.619305 0 0 0 -61.61914,61.61914 61.619305,61.619305 0 0 0 51.82031,60.80469 l 34.07422,66.2539 a 39.39595,39.39595 0 0 0 -4.07227,17.39258 39.39595,39.39595 0 0 0 39.39649,39.39648 39.39595,39.39595 0 0 0 34.39258,-20.27734 l 32.82421,6.31836 a 39.39595,39.39595 0 0 0 38.84961,33.15234 39.39595,39.39595 0 0 0 39.39649,-39.39648 39.39595,39.39595 0 0 0 -39.39649,-39.39649 39.39595,39.39595 0 0 0 -35.21093,21.75 l -31.75196,-6.10937 a 39.39595,39.39595 0 0 0 -29.3457,-33.57422 L 315.7168,474.40625 a 61.619305,61.619305 0 0 0 12.58203,-37.22656 61.619305,61.619305 0 0 0 -61.61914,-61.61914 z m 0,20.2539 c 22.7863,0 41.36523,18.57893 41.36523,41.36524 0,22.7863 -18.57893,41.36523 -41.36523,41.36523 -22.78631,0 -41.36524,-18.57893 -41.36524,-41.36523 0,-22.78631 18.57893,-41.36524 41.36524,-41.36524 z m 0,10 c -17.38191,0 -31.36524,13.98333 -31.36524,31.36524 0,17.3819 13.98333,31.36523 31.36524,31.36523 17.3819,0 31.36523,-13.98333 31.36523,-31.36523 0,-17.38191 -13.98333,-31.36524 -31.36523,-31.36524 z m 59.59961,149.36914 c 12.0753,0 22.29461,8.16458 25.4414,19.25391 l -7.33398,-1.41211 c -3.21053,-6.77518 -10.08267,-11.44727 -18.10742,-11.44727 -11.11302,10e-6 -20.05274,8.93972 -20.05274,20.05274 0,11.11302 8.93972,20.05273 20.05274,20.05273 5.09631,0 9.72232,-1.8944 13.25195,-5.00195 l 7.4043,1.42578 c -4.85291,6.06835 -12.31119,9.9707 -20.65625,9.9707 -14.5683,10e-6 -26.44727,-11.87897 -26.44727,-26.44726 0,-14.56829 11.87897,-26.44727 26.44727,-26.44727 z m 106.0664,19.19336 c 14.5683,0 26.44727,11.87898 26.44727,26.44727 0,14.56829 -11.87897,26.44726 -26.44727,26.44726 -11.43564,0 -21.21009,-7.3214 -24.88672,-17.51562 l 7.75977,1.49414 c 3.51213,5.77477 9.84378,9.62695 17.12695,9.62695 11.11302,0 20.05274,-8.93971 20.05274,-20.05273 0,-11.11302 -8.93972,-20.05274 -20.05274,-20.05274 -5.80254,0 -10.99751,2.45203 -14.65234,6.36329 l -7.06836,-1.35938 c 4.78361,-6.87795 12.73821,-11.39844 21.7207,-11.39844 z"
         style="fill:#800080;fill-rule:evenodd;stroke:none;stroke-width:1px;stroke-linecap:butt;stroke-linejoin:miter;stroke-opacity:1;filter:url(#filter4219)"
         inkscape:connector-curvature="0" />
      <path
         style="fill:#ff00ff;fill-rule:evenodd;stroke:none;stroke-width:1px;stroke-linecap:butt;stroke-linejoin:miter;stroke-opacity:1;filter:url(#filter4251)"
         d="m 266.67969,375.56055 a 61.619305,61.619305 0 0 0 -61.61914,61.61914 61.619305,61.619305 0 0 0 51.82031,60.80469 l 34.07422,66.2539 a 39.39595,39.39595 0 0 0 -4.07227,17.39258 39.39595,39.39595 0 0 0 39.39649,39.39648 39.39595,39.39595 0 0 0 34.39258,-20.27734 l 32.82421,6.31836 a 39.39595,39.39595 0 0 0 38.84961,33.15234 39.39595,39.39595 0 0 0 39.39649,-39.39648 39.39595,39.39595 0 0 0 -39.39649,-39.39649 39.39595,39.39595 0 0 0 -35.21093,21.75 l -31.75196,-6.10937 a 39.39595,39.39595 0 0 0 -29.3457,-33.57422 L 315.7168,474.40625 a 61.619305,61.619305 0 0 0 12.58203,-37.22656 61.619305,61.619305 0 0 0 -61.61914,-61.61914 z m 0,20.2539 c 22.7863,0 41.36523,18.57893 41.36523,41.36524 0,22.7863 -18.57893,41.36523 -41.36523,41.36523 -22.78631,0 -41.36524,-18.57893 -41.36524,-41.36523 0,-22.78631 18.57893,-41.36524 41.36524,-41.36524 z m 0,10 c -17.38191,0 -31.36524,13.98333 -31.36524,31.36524 0,17.3819 13.98333,31.36523 31.36524,31.36523 17.3819,0 31.36523,-13.98333 31.36523,-31.36523 0,-17.38191 -13.98333,-31.36524 -31.36523,-31.36524 z m 59.59961,149.36914 c 12.0753,0 22.29461,8.16458 25.4414,19.25391 l -7.33398,-1.41211 c -3.21053,-6.77518 -10.08267,-11.44727 -18.10742,-11.44727 -11.11302,10e-6 -20.05274,8.93972 -20.05274,20.05274 0,11.11302 8.93972,20.05273 20.05274,20.05273 5.09631,0 9.72232,-1.8944 13.25195,-5.00195 l 7.4043,1.42578 c -4.85291,6.06835 -12.31119,9.9707 -20.65625,9.9707 -14.5683,10e-6 -26.44727,-11.87897 -26.44727,-26.44726 0,-14.56829 11.87897,-26.44727 26.44727,-26.44727 z m 106.0664,19.19336 c 14.5683,0 26.44727,11.87898 26.44727,26.44727 0,14.56829 -11.87897,26.44726 -26.44727,26.44726 -11.43564,0 -21.21009,-7.3214 -24.88672,-17.51562 l 7.75977,1.49414 c 3.51213,5.77477 9.84378,9.62695 17.12695,9.62695 11.11302,0 20.05274,-8.93971 20.05274,-20.05273 0,-11.11302 -8.93972,-20.05274 -20.05274,-20.05274 -5.80254,0 -10.99751,2.45203 -14.65234,6.36329 l -7.06836,-1.35938 c 4.78361,-6.87795 12.73821,-11.39844 21.7207,-11.39844 z"
         id="path4225"
         inkscape:connector-curvature="0" />
      <path
         id="path4255"
         d="m 266.67969,375.56055 a 61.619305,61.619305 0 0 0 -61.61914,61.61914 61.619305,61.619305 0 0 0 51.82031,60.80469 l 34.07422,66.2539 a 39.39595,39.39595 0 0 0 -4.07227,17.39258 39.39595,39.39595 0 0 0 39.39649,39.39648 39.39595,39.39595 0 0 0 34.39258,-20.27734 l 32.82421,6.31836 a 39.39595,39.39595 0 0 0 38.84961,33.15234 39.39595,39.39595 0 0 0 39.39649,-39.39648 39.39595,39.39595 0 0 0 -39.39649,-39.39649 39.39595,39.39595 0 0 0 -35.21093,21.75 l -31.75196,-6.10937 a 39.39595,39.39595 0 0 0 -29.3457,-33.57422 L 315.7168,474.40625 a 61.619305,61.619305 0 0 0 12.58203,-37.22656 61.619305,61.619305 0 0 0 -61.61914,-61.61914 z m 0,20.2539 c 22.7863,0 41.36523,18.57893 41.36523,41.36524 0,22.7863 -18.57893,41.36523 -41.36523,41.36523 -22.78631,0 -41.36524,-18.57893 -41.36524,-41.36523 0,-22.78631 18.57893,-41.36524 41.36524,-41.36524 z m 0,10 c -17.38191,0 -31.36524,13.98333 -31.36524,31.36524 0,17.3819 13.98333,31.36523 31.36524,31.36523 17.3819,0 31.36523,-13.98333 31.36523,-31.36523 0,-17.38191 -13.98333,-31.36524 -31.36523,-31.36524 z m 59.59961,149.36914 c 12.0753,0 22.29461,8.16458 25.4414,19.25391 l -7.33398,-1.41211 c -3.21053,-6.77518 -10.08267,-11.44727 -18.10742,-11.44727 -11.11302,10e-6 -20.05274,8.93972 -20.05274,20.05274 0,11.11302 8.93972,20.05273 20.05274,20.05273 5.09631,0 9.72232,-1.8944 13.25195,-5.00195 l 7.4043,1.42578 c -4.85291,6.06835 -12.31119,9.9707 -20.65625,9.9707 -14.5683,10e-6 -26.44727,-11.87897 -26.44727,-26.44726 0,-14.56829 11.87897,-26.44727 26.44727,-26.44727 z m 106.0664,19.19336 c 14.5683,0 26.44727,11.87898 26.44727,26.44727 0,14.56829 -11.87897,26.44726 -26.44727,26.44726 -11.43564,0 -21.21009,-7.3214 -24.88672,-17.51562 l 7.75977,1.49414 c 3.51213,5.77477 9.84378,9.62695 17.12695,9.62695 11.11302,0 20.05274,-8.93971 20.05274,-20.05273 0,-11.11302 -8.93972,-20.05274 -20.05274,-20.05274 -5.80254,0 -10.99751,2.45203 -14.65234,6.36329 l -7.06836,-1.35938 c 4.78361,-6.87795 12.73821,-11.39844 21.7207,-11.39844 z"
         style="fill:#ffffff;fill-rule:evenodd;stroke:none;stroke-width:1px;stroke-linecap:butt;stroke-linejoin:miter;stroke-opacity:1;filter:url(#filter4265)"
         inkscape:connector-curvature="0" />
      <path
         id="path4152"
         d="m 266.67969,375.56055 a 61.619305,61.619305 0 0 0 -61.61914,61.61914 61.619305,61.619305 0 0 0 51.82031,60.80469 l 34.07422,66.2539 a 39.39595,39.39595 0 0 0 -4.07227,17.39258 39.39595,39.39595 0 0 0 39.39649,39.39648 39.39595,39.39595 0 0 0 34.39258,-20.27734 l 32.82421,6.31836 a 39.39595,39.39595 0 0 0 38.84961,33.15234 39.39595,39.39595 0 0 0 39.39649,-39.39648 39.39595,39.39595 0 0 0 -39.39649,-39.39649 39.39595,39.39595 0 0 0 -35.21093,21.75 l -31.75196,-6.10937 a 39.39595,39.39595 0 0 0 -29.3457,-33.57422 L 315.7168,474.40625 a 61.619305,61.619305 0 0 0 12.58203,-37.22656 61.619305,61.619305 0 0 0 -61.61914,-61.61914 z m 0,20.2539 c 22.7863,0 41.36523,18.57893 41.36523,41.36524 0,22.7863 -18.57893,41.36523 -41.36523,41.36523 -22.78631,0 -41.36524,-18.57893 -41.36524,-41.36523 0,-22.78631 18.57893,-41.36524 41.36524,-41.36524 z m 0,10 c -17.38191,0 -31.36524,13.98333 -31.36524,31.36524 0,17.3819 13.98333,31.36523 31.36524,31.36523 17.3819,0 31.36523,-13.98333 31.36523,-31.36523 0,-17.38191 -13.98333,-31.36524 -31.36523,-31.36524 z m 59.59961,149.36914 c 12.0753,0 22.29461,8.16458 25.4414,19.25391 l -7.33398,-1.41211 c -3.21053,-6.77518 -10.08267,-11.44727 -18.10742,-11.44727 -11.11302,10e-6 -20.05274,8.93972 -20.05274,20.05274 0,11.11302 8.93972,20.05273 20.05274,20.05273 5.09631,0 9.72232,-1.8944 13.25195,-5.00195 l 7.4043,1.42578 c -4.85291,6.06835 -12.31119,9.9707 -20.65625,9.9707 -14.5683,10e-6 -26.44727,-11.87897 -26.44727,-26.44726 0,-14.56829 11.87897,-26.44727 26.44727,-26.44727 z m 106.0664,19.19336 c 14.5683,0 26.44727,11.87898 26.44727,26.44727 0,14.56829 -11.87897,26.44726 -26.44727,26.44726 -11.43564,0 -21.21009,-7.3214 -24.88672,-17.51562 l 7.75977,1.49414 c 3.51213,5.77477 9.84378,9.62695 17.12695,9.62695 11.11302,0 20.05274,-8.93971 20.05274,-20.05273 0,-11.11302 -8.93972,-20.05274 -20.05274,-20.05274 -5.80254,0 -10.99751,2.45203 -14.65234,6.36329 l -7.06836,-1.35938 c 4.78361,-6.87795 12.73821,-11.39844 21.7207,-11.39844 z"
         style="fill:#ffffff;fill-rule:evenodd;stroke:none;stroke-width:1px;stroke-linecap:butt;stroke-linejoin:miter;stroke-opacity:1"
         inkscape:connector-curvature="0" />
    </g>
    <g
       id="g4337"
       inkscape:export-filename="/home/georg/uplay.png"
       inkscape:export-xdpi="42.799755"
       inkscape:export-ydpi="42.799755"
       transform="matrix(0.95278577,0,0,0.95278577,-186.20138,-24.774147)">
      <path
         id="path4317"
         d="m -95.714844,281.64844 a 15,15 0 0 0 -14.999996,15 15,15 0 0 0 14.999996,15 15,15 0 0 0 15,-15 15,15 0 0 0 -15,-15 z m -39.285156,40 A 23.571428,23.571428 0 0 0 -158.57227,345.21875 23.571428,23.571428 0 0 0 -135,368.79102 23.571428,23.571428 0 0 0 -111.42773,345.21875 23.571428,23.571428 0 0 0 -135,321.64844 Z m 96.785156,7.14258 a 85.35714,85.35714 0 0 0 -85.357426,85.35742 85.35714,85.35714 0 0 0 85.357426,85.35742 85.35714,85.35714 0 0 0 85.357422,-85.35742 85.35714,85.35714 0 0 0 -85.357422,-85.35742 z m -46.132812,61.24609 23.945312,0 0,47.44336 c 0,8.32355 7.395245,12.48633 22.1875,12.48633 14.792255,0 22.189453,-4.16278 22.189453,-12.48633 l 0,-47.44336 23.9433598,0 0,47.44336 c 0,3.77761 -1.0112402,7.1704 -3.0332032,10.17969 -1.9155438,2.94525 -4.41579914,5.31465 -7.5019531,7.10742 -3.086154,1.79276 -6.7569082,3.26547 -11.0136715,4.41797 -4.150345,1.15249 -8.249043,1.95415 -12.292969,2.40234 -3.937507,0.44819 -8.034252,0.67188 -12.291016,0.67188 -4.256764,0 -8.407246,-0.22369 -12.451172,-0.67188 -3.937506,-0.44819 -8.034251,-1.24985 -12.291015,-2.40234 -4.150345,-1.1525 -7.767362,-2.62521 -10.853516,-4.41797 -3.086154,-1.79277 -5.642099,-4.16217 -7.664062,-7.10742 -1.915544,-3.00929 -2.873047,-6.40208 -2.873047,-10.17969 l 0,-47.44336 z"
         style="opacity:1;fill:#0000ff;fill-opacity:1;stroke:none;stroke-width:10;stroke-linejoin:round;stroke-miterlimit:4;stroke-dasharray:none;filter:url(#filter4313)"
         inkscape:connector-curvature="0" />
      <path
         style="opacity:1;fill:#0000ff;fill-opacity:1;stroke:none;stroke-width:10;stroke-linejoin:round;stroke-miterlimit:4;stroke-dasharray:none;filter:url(#filter4313)"
         d="m -95.714844,281.64844 a 15,15 0 0 0 -14.999996,15 15,15 0 0 0 14.999996,15 15,15 0 0 0 15,-15 15,15 0 0 0 -15,-15 z m -39.285156,40 A 23.571428,23.571428 0 0 0 -158.57227,345.21875 23.571428,23.571428 0 0 0 -135,368.79102 23.571428,23.571428 0 0 0 -111.42773,345.21875 23.571428,23.571428 0 0 0 -135,321.64844 Z m 96.785156,7.14258 a 85.35714,85.35714 0 0 0 -85.357426,85.35742 85.35714,85.35714 0 0 0 85.357426,85.35742 85.35714,85.35714 0 0 0 85.357422,-85.35742 85.35714,85.35714 0 0 0 -85.357422,-85.35742 z m -46.132812,61.24609 23.945312,0 0,47.44336 c 0,8.32355 7.395245,12.48633 22.1875,12.48633 14.792255,0 22.189453,-4.16278 22.189453,-12.48633 l 0,-47.44336 23.9433598,0 0,47.44336 c 0,3.77761 -1.0112402,7.1704 -3.0332032,10.17969 -1.9155438,2.94525 -4.41579914,5.31465 -7.5019531,7.10742 -3.086154,1.79276 -6.7569082,3.26547 -11.0136715,4.41797 -4.150345,1.15249 -8.249043,1.95415 -12.292969,2.40234 -3.937507,0.44819 -8.034252,0.67188 -12.291016,0.67188 -4.256764,0 -8.407246,-0.22369 -12.451172,-0.67188 -3.937506,-0.44819 -8.034251,-1.24985 -12.291015,-2.40234 -4.150345,-1.1525 -7.767362,-2.62521 -10.853516,-4.41797 -3.086154,-1.79277 -5.642099,-4.16217 -7.664062,-7.10742 -1.915544,-3.00929 -2.873047,-6.40208 -2.873047,-10.17969 l 0,-47.44336 z"
         id="path4307"
         inkscape:connector-curvature="0" />
      <path
         style="opacity:1;fill:#00ffff;fill-opacity:1;stroke:none;stroke-width:10;stroke-linejoin:round;stroke-miterlimit:4;stroke-dasharray:none;filter:url(#filter4325)"
         d="m -95.714844,281.64844 a 15,15 0 0 0 -14.999996,15 15,15 0 0 0 14.999996,15 15,15 0 0 0 15,-15 15,15 0 0 0 -15,-15 z m -39.285156,40 A 23.571428,23.571428 0 0 0 -158.57227,345.21875 23.571428,23.571428 0 0 0 -135,368.79102 23.571428,23.571428 0 0 0 -111.42773,345.21875 23.571428,23.571428 0 0 0 -135,321.64844 Z m 96.785156,7.14258 a 85.35714,85.35714 0 0 0 -85.357426,85.35742 85.35714,85.35714 0 0 0 85.357426,85.35742 85.35714,85.35714 0 0 0 85.357422,-85.35742 85.35714,85.35714 0 0 0 -85.357422,-85.35742 z m -46.132812,61.24609 23.945312,0 0,47.44336 c 0,8.32355 7.395245,12.48633 22.1875,12.48633 14.792255,0 22.189453,-4.16278 22.189453,-12.48633 l 0,-47.44336 23.9433598,0 0,47.44336 c 0,3.77761 -1.0112402,7.1704 -3.0332032,10.17969 -1.9155438,2.94525 -4.41579914,5.31465 -7.5019531,7.10742 -3.086154,1.79276 -6.7569082,3.26547 -11.0136715,4.41797 -4.150345,1.15249 -8.249043,1.95415 -12.292969,2.40234 -3.937507,0.44819 -8.034252,0.67188 -12.291016,0.67188 -4.256764,0 -8.407246,-0.22369 -12.451172,-0.67188 -3.937506,-0.44819 -8.034251,-1.24985 -12.291015,-2.40234 -4.150345,-1.1525 -7.767362,-2.62521 -10.853516,-4.41797 -3.086154,-1.79277 -5.642099,-4.16217 -7.664062,-7.10742 -1.915544,-3.00929 -2.873047,-6.40208 -2.873047,-10.17969 l 0,-47.44336 z"
         id="path4319"
         inkscape:connector-curvature="0" />
      <path
         id="path4329"
         d="m -95.714844,281.64844 a 15,15 0 0 0 -14.999996,15 15,15 0 0 0 14.999996,15 15,15 0 0 0 15,-15 15,15 0 0 0 -15,-15 z m -39.285156,40 A 23.571428,23.571428 0 0 0 -158.57227,345.21875 23.571428,23.571428 0 0 0 -135,368.79102 23.571428,23.571428 0 0 0 -111.42773,345.21875 23.571428,23.571428 0 0 0 -135,321.64844 Z m 96.785156,7.14258 a 85.35714,85.35714 0 0 0 -85.357426,85.35742 85.35714,85.35714 0 0 0 85.357426,85.35742 85.35714,85.35714 0 0 0 85.357422,-85.35742 85.35714,85.35714 0 0 0 -85.357422,-85.35742 z m -46.132812,61.24609 23.945312,0 0,47.44336 c 0,8.32355 7.395245,12.48633 22.1875,12.48633 14.792255,0 22.189453,-4.16278 22.189453,-12.48633 l 0,-47.44336 23.9433598,0 0,47.44336 c 0,3.77761 -1.0112402,7.1704 -3.0332032,10.17969 -1.9155438,2.94525 -4.41579914,5.31465 -7.5019531,7.10742 -3.086154,1.79276 -6.7569082,3.26547 -11.0136715,4.41797 -4.150345,1.15249 -8.249043,1.95415 -12.292969,2.40234 -3.937507,0.44819 -8.034252,0.67188 -12.291016,0.67188 -4.256764,0 -8.407246,-0.22369 -12.451172,-0.67188 -3.937506,-0.44819 -8.034251,-1.24985 -12.291015,-2.40234 -4.150345,-1.1525 -7.767362,-2.62521 -10.853516,-4.41797 -3.086154,-1.79277 -5.642099,-4.16217 -7.664062,-7.10742 -1.915544,-3.00929 -2.873047,-6.40208 -2.873047,-10.17969 l 0,-47.44336 z"
         style="opacity:1;fill:#00ffff;fill-opacity:1;stroke:none;stroke-width:10;stroke-linejoin:round;stroke-miterlimit:4;stroke-dasharray:none;filter:url(#filter4325)"
         inkscape:connector-curvature="0" />
      <path
         id="path4295"
         d="m -95.714844,281.64844 a 15,15 0 0 0 -14.999996,15 15,15 0 0 0 14.999996,15 15,15 0 0 0 15,-15 15,15 0 0 0 -15,-15 z m -39.285156,40 A 23.571428,23.571428 0 0 0 -158.57227,345.21875 23.571428,23.571428 0 0 0 -135,368.79102 23.571428,23.571428 0 0 0 -111.42773,345.21875 23.571428,23.571428 0 0 0 -135,321.64844 Z m 96.785156,7.14258 a 85.35714,85.35714 0 0 0 -85.357426,85.35742 85.35714,85.35714 0 0 0 85.357426,85.35742 85.35714,85.35714 0 0 0 85.357422,-85.35742 85.35714,85.35714 0 0 0 -85.357422,-85.35742 z m -46.132812,61.24609 23.945312,0 0,47.44336 c 0,8.32355 7.395245,12.48633 22.1875,12.48633 14.792255,0 22.189453,-4.16278 22.189453,-12.48633 l 0,-47.44336 23.9433598,0 0,47.44336 c 0,3.77761 -1.0112402,7.1704 -3.0332032,10.17969 -1.9155438,2.94525 -4.41579914,5.31465 -7.5019531,7.10742 -3.086154,1.79276 -6.7569082,3.26547 -11.0136715,4.41797 -4.150345,1.15249 -8.249043,1.95415 -12.292969,2.40234 -3.937507,0.44819 -8.034252,0.67188 -12.291016,0.67188 -4.256764,0 -8.407246,-0.22369 -12.451172,-0.67188 -3.937506,-0.44819 -8.034251,-1.24985 -12.291015,-2.40234 -4.150345,-1.1525 -7.767362,-2.62521 -10.853516,-4.41797 -3.086154,-1.79277 -5.642099,-4.16217 -7.664062,-7.10742 -1.915544,-3.00929 -2.873047,-6.40208 -2.873047,-10.17969 l 0,-47.44336 z"
         style="opacity:1;fill:#ffffff;fill-opacity:1;stroke:none;stroke-width:10;stroke-linejoin:round;stroke-miterlimit:4;stroke-dasharray:none"
         inkscape:connector-curvature="0" />
      <path
         style="opacity:1;fill:#ffffff;fill-opacity:1;stroke:none;stroke-width:10;stroke-linejoin:round;stroke-miterlimit:4;stroke-dasharray:none;filter:url(#filter4333)"
         d="m -95.714844,281.64844 a 15,15 0 0 0 -14.999996,15 15,15 0 0 0 14.999996,15 15,15 0 0 0 15,-15 15,15 0 0 0 -15,-15 z m -39.285156,40 A 23.571428,23.571428 0 0 0 -158.57227,345.21875 23.571428,23.571428 0 0 0 -135,368.79102 23.571428,23.571428 0 0 0 -111.42773,345.21875 23.571428,23.571428 0 0 0 -135,321.64844 Z m 96.785156,7.14258 a 85.35714,85.35714 0 0 0 -85.357426,85.35742 85.35714,85.35714 0 0 0 85.357426,85.35742 85.35714,85.35714 0 0 0 85.357422,-85.35742 85.35714,85.35714 0 0 0 -85.357422,-85.35742 z m -46.132812,61.24609 23.945312,0 0,47.44336 c 0,8.32355 7.395245,12.48633 22.1875,12.48633 14.792255,0 22.189453,-4.16278 22.189453,-12.48633 l 0,-47.44336 23.9433598,0 0,47.44336 c 0,3.77761 -1.0112402,7.1704 -3.0332032,10.17969 -1.9155438,2.94525 -4.41579914,5.31465 -7.5019531,7.10742 -3.086154,1.79276 -6.7569082,3.26547 -11.0136715,4.41797 -4.150345,1.15249 -8.249043,1.95415 -12.292969,2.40234 -3.937507,0.44819 -8.034252,0.67188 -12.291016,0.67188 -4.256764,0 -8.407246,-0.22369 -12.451172,-0.67188 -3.937506,-0.44819 -8.034251,-1.24985 -12.291015,-2.40234 -4.150345,-1.1525 -7.767362,-2.62521 -10.853516,-4.41797 -3.086154,-1.79277 -5.642099,-4.16217 -7.664062,-7.10742 -1.915544,-3.00929 -2.873047,-6.40208 -2.873047,-10.17969 l 0,-47.44336 z"
         id="path4331"
         inkscape:connector-curvature="0" />
    </g>
  </g>
</svg>
